\relax 
\providecommand\hyper@newdestlabel[2]{}
\providecommand\HyperFirstAtBeginDocument{\AtBeginDocument}
\HyperFirstAtBeginDocument{\ifx\hyper@anchor\@undefined
\global\let\oldcontentsline\contentsline
\gdef\contentsline#1#2#3#4{\oldcontentsline{#1}{#2}{#3}}
\global\let\oldnewlabel\newlabel
\gdef\newlabel#1#2{\newlabelxx{#1}#2}
\gdef\newlabelxx#1#2#3#4#5#6{\oldnewlabel{#1}{{#2}{#3}}}
\AtEndDocument{\ifx\hyper@anchor\@undefined
\let\contentsline\oldcontentsline
\let\newlabel\oldnewlabel
\fi}
\fi}
\global\let\hyper@last\relax 
\gdef\HyperFirstAtBeginDocument#1{#1}
\providecommand*\HyPL@Entry[1]{}
\HyPL@Entry{0<</S/D>>}
\select@language {french}
\@writefile{toc}{\select@language {french}}
\@writefile{lof}{\select@language {french}}
\@writefile{lot}{\select@language {french}}
\@writefile{toc}{\contentsline {section}{ACTE I.}{2}{section*.1}}
\newlabel{acte-i.}{{}{2}{ACTE I}{section*.1}{}}
\@writefile{toc}{\contentsline {subsection}{SCÈNE PREMIÈRE}{2}{section*.2}}
\newlabel{scuxe8ne-premiuxe8re}{{}{2}{SCÈNE PREMIÈRE}{section*.2}{}}
\@writefile{toc}{\contentsline {subsubsection}{MADAME PERNELLE.}{2}{section*.3}}
\newlabel{madame-pernelle.}{{}{2}{MADAME PERNELLE}{section*.3}{}}
\@writefile{toc}{\contentsline {subsubsection}{ELMIRE.}{2}{section*.4}}
\newlabel{elmire.}{{}{2}{ELMIRE}{section*.4}{}}
\@writefile{toc}{\contentsline {subsubsection}{MADAME PERNELLE.}{2}{section*.5}}
\newlabel{madame-pernelle.-1}{{}{2}{MADAME PERNELLE}{section*.5}{}}
\@writefile{toc}{\contentsline {subsubsection}{ELMIRE.}{2}{section*.6}}
\newlabel{elmire.-1}{{}{2}{ELMIRE}{section*.6}{}}
\@writefile{toc}{\contentsline {subsubsection}{MADAME PERNELLE.}{3}{section*.7}}
\newlabel{madame-pernelle.-2}{{}{3}{MADAME PERNELLE}{section*.7}{}}
\@writefile{toc}{\contentsline {subsubsection}{DORINE.}{3}{section*.8}}
\newlabel{dorine.}{{}{3}{DORINE}{section*.8}{}}
\@writefile{toc}{\contentsline {subsubsection}{MADAME PERNELLE.}{3}{section*.9}}
\newlabel{madame-pernelle.-3}{{}{3}{MADAME PERNELLE}{section*.9}{}}
\@writefile{toc}{\contentsline {subsubsection}{DAMIS.}{3}{section*.10}}
\newlabel{damis.}{{}{3}{DAMIS}{section*.10}{}}
\@writefile{toc}{\contentsline {subsubsection}{MADAME PERNELLE.}{4}{section*.11}}
\newlabel{madame-pernelle.-4}{{}{4}{MADAME PERNELLE}{section*.11}{}}
\@writefile{toc}{\contentsline {subsubsection}{MARIANE.}{4}{section*.12}}
\newlabel{mariane.}{{}{4}{MARIANE}{section*.12}{}}
\@writefile{toc}{\contentsline {subsubsection}{MADAME PERNELLE.}{4}{section*.13}}
\newlabel{madame-pernelle.-5}{{}{4}{MADAME PERNELLE}{section*.13}{}}
\@writefile{toc}{\contentsline {subsubsection}{ELMIRE.}{4}{section*.14}}
\newlabel{elmire.-2}{{}{4}{ELMIRE}{section*.14}{}}
\@writefile{toc}{\contentsline {subsubsection}{MADAME PERNELLE.}{5}{section*.15}}
\newlabel{madame-pernelle.-6}{{}{5}{MADAME PERNELLE}{section*.15}{}}
\@writefile{toc}{\contentsline {subsubsection}{CLÉANTE.}{5}{section*.16}}
\newlabel{cluxe9ante.}{{}{5}{CLÉANTE}{section*.16}{}}
\@writefile{toc}{\contentsline {subsubsection}{MADAME PERNELLE.}{5}{section*.17}}
\newlabel{madame-pernelle.-7}{{}{5}{MADAME PERNELLE}{section*.17}{}}
\@writefile{toc}{\contentsline {subsubsection}{DAMIS.}{6}{section*.18}}
\newlabel{damis.-1}{{}{6}{DAMIS}{section*.18}{}}
\@writefile{toc}{\contentsline {subsubsection}{MADAME PERNELLE.}{6}{section*.19}}
\newlabel{madame-pernelle.-8}{{}{6}{MADAME PERNELLE}{section*.19}{}}
\@writefile{toc}{\contentsline {subsubsection}{DAMIS.}{6}{section*.20}}
\newlabel{damis.-2}{{}{6}{DAMIS}{section*.20}{}}
\@writefile{toc}{\contentsline {subsubsection}{DORINE.}{6}{section*.21}}
\newlabel{dorine.-1}{{}{6}{DORINE}{section*.21}{}}
\@writefile{toc}{\contentsline {subsubsection}{MADAME PERNELLE.}{7}{section*.22}}
\newlabel{madame-pernelle.-9}{{}{7}{MADAME PERNELLE}{section*.22}{}}
\@writefile{toc}{\contentsline {subsubsection}{DAMIS.}{7}{section*.23}}
\newlabel{damis.-3}{{}{7}{DAMIS}{section*.23}{}}
\@writefile{toc}{\contentsline {subsubsection}{DORINE.}{7}{section*.24}}
\newlabel{dorine.-2}{{}{7}{DORINE}{section*.24}{}}
\@writefile{toc}{\contentsline {subsubsection}{MADAME PERNELLE.}{8}{section*.25}}
\newlabel{madame-pernelle.-10}{{}{8}{MADAME PERNELLE}{section*.25}{}}
\@writefile{toc}{\contentsline {subsubsection}{DORINE.}{8}{section*.26}}
\newlabel{dorine.-3}{{}{8}{DORINE}{section*.26}{}}
\@writefile{toc}{\contentsline {subsubsection}{MADAME PERNELLE.}{8}{section*.27}}
\newlabel{madame-pernelle.-11}{{}{8}{MADAME PERNELLE}{section*.27}{}}
\@writefile{toc}{\contentsline {subsubsection}{DORINE.}{8}{section*.28}}
\newlabel{dorine.-4}{{}{8}{DORINE}{section*.28}{}}
\@writefile{toc}{\contentsline {subsubsection}{MADAME PERNELLE.}{8}{section*.29}}
\newlabel{madame-pernelle.-12}{{}{8}{MADAME PERNELLE}{section*.29}{}}
\@writefile{toc}{\contentsline {subsubsection}{DORINE.}{9}{section*.30}}
\newlabel{dorine.-5}{{}{9}{DORINE}{section*.30}{}}
\@writefile{toc}{\contentsline {subsubsection}{MADAME PERNELLE.}{9}{section*.31}}
\newlabel{madame-pernelle.-13}{{}{9}{MADAME PERNELLE}{section*.31}{}}
\@writefile{toc}{\contentsline {subsubsection}{CLÉANTE.}{9}{section*.32}}
\newlabel{cluxe9ante.-1}{{}{9}{CLÉANTE}{section*.32}{}}
\@writefile{toc}{\contentsline {subsubsection}{DORINE.}{10}{section*.33}}
\newlabel{dorine.-6}{{}{10}{DORINE}{section*.33}{}}
\@writefile{toc}{\contentsline {subsubsection}{MADAME PERNELLE.}{10}{section*.34}}
\newlabel{madame-pernelle.-14}{{}{10}{MADAME PERNELLE}{section*.34}{}}
\@writefile{toc}{\contentsline {subsubsection}{DORINE.}{11}{section*.35}}
\newlabel{dorine.-7}{{}{11}{DORINE}{section*.35}{}}
\@writefile{toc}{\contentsline {subsubsection}{MADAME PERNELLE.}{12}{section*.36}}
\newlabel{madame-pernelle.-15}{{}{12}{MADAME PERNELLE}{section*.36}{}}
\@writefile{toc}{\contentsline {section}{ACTE I.}{14}{section*.37}}
\newlabel{acte-i.-1}{{}{14}{ACTE I}{section*.37}{}}
\@writefile{toc}{\contentsline {subsection}{SCÈNE II}{14}{section*.38}}
\newlabel{scuxe8ne-ii}{{}{14}{SCÈNE II}{section*.38}{}}
\@writefile{toc}{\contentsline {subsubsection}{CLÉANTE.}{14}{section*.39}}
\newlabel{cluxe9ante.-2}{{}{14}{CLÉANTE}{section*.39}{}}
\@writefile{toc}{\contentsline {subsubsection}{DORINE.}{14}{section*.40}}
\newlabel{dorine.-8}{{}{14}{DORINE}{section*.40}{}}
\@writefile{toc}{\contentsline {subsubsection}{CLÉANTE.}{15}{section*.41}}
\newlabel{cluxe9ante.-3}{{}{15}{CLÉANTE}{section*.41}{}}
\@writefile{toc}{\contentsline {subsubsection}{DORINE.}{15}{section*.42}}
\newlabel{dorine.-9}{{}{15}{DORINE}{section*.42}{}}
\@writefile{toc}{\contentsline {section}{ACTE I.}{18}{section*.43}}
\newlabel{acte-i.-2}{{}{18}{ACTE I}{section*.43}{}}
\@writefile{toc}{\contentsline {subsection}{SCÈNE III}{18}{section*.44}}
\newlabel{scuxe8ne-iii}{{}{18}{SCÈNE III}{section*.44}{}}
\@writefile{toc}{\contentsline {subsubsection}{ELMIRE.}{18}{section*.45}}
\newlabel{elmire.-3}{{}{18}{ELMIRE}{section*.45}{}}
\@writefile{toc}{\contentsline {subsubsection}{CLÉANTE.}{18}{section*.46}}
\newlabel{cluxe9ante.-4}{{}{18}{CLÉANTE}{section*.46}{}}
\@writefile{toc}{\contentsline {subsubsection}{DAMIS.}{18}{section*.47}}
\newlabel{damis.-4}{{}{18}{DAMIS}{section*.47}{}}
\@writefile{toc}{\contentsline {subsubsection}{DORINE.}{19}{section*.48}}
\newlabel{dorine.-10}{{}{19}{DORINE}{section*.48}{}}
\@writefile{toc}{\contentsline {section}{ACTE I.}{19}{section*.49}}
\newlabel{acte-i.-3}{{}{19}{ACTE I}{section*.49}{}}
\@writefile{toc}{\contentsline {subsection}{SCÈNE IV}{19}{section*.50}}
\newlabel{scuxe8ne-iv}{{}{19}{SCÈNE IV}{section*.50}{}}
\@writefile{toc}{\contentsline {subsubsection}{ORGON.}{19}{section*.51}}
\newlabel{orgon.}{{}{19}{ORGON}{section*.51}{}}
\@writefile{toc}{\contentsline {subsubsection}{CLÉANTE.}{19}{section*.52}}
\newlabel{cluxe9ante.-5}{{}{19}{CLÉANTE}{section*.52}{}}
\@writefile{toc}{\contentsline {subsubsection}{ORGON.}{20}{section*.53}}
\newlabel{orgon.-1}{{}{20}{ORGON}{section*.53}{}}
\@writefile{toc}{\contentsline {subsubsection}{DORINE.}{20}{section*.54}}
\newlabel{dorine.-11}{{}{20}{DORINE}{section*.54}{}}
\@writefile{toc}{\contentsline {subsubsection}{ORGON.}{20}{section*.55}}
\newlabel{orgon.-2}{{}{20}{ORGON}{section*.55}{}}
\@writefile{toc}{\contentsline {subsubsection}{DORINE.}{20}{section*.56}}
\newlabel{dorine.-12}{{}{20}{DORINE}{section*.56}{}}
\@writefile{toc}{\contentsline {subsubsection}{ORGON.}{20}{section*.57}}
\newlabel{orgon.-3}{{}{20}{ORGON}{section*.57}{}}
\@writefile{toc}{\contentsline {subsubsection}{DORINE.}{21}{section*.58}}
\newlabel{dorine.-13}{{}{21}{DORINE}{section*.58}{}}
\@writefile{toc}{\contentsline {subsubsection}{ORGON.}{21}{section*.59}}
\newlabel{orgon.-4}{{}{21}{ORGON}{section*.59}{}}
\@writefile{toc}{\contentsline {subsubsection}{DORINE.}{21}{section*.60}}
\newlabel{dorine.-14}{{}{21}{DORINE}{section*.60}{}}
\@writefile{toc}{\contentsline {subsubsection}{ORGON.}{21}{section*.61}}
\newlabel{orgon.-5}{{}{21}{ORGON}{section*.61}{}}
\@writefile{toc}{\contentsline {subsubsection}{DORINE.}{21}{section*.62}}
\newlabel{dorine.-15}{{}{21}{DORINE}{section*.62}{}}
\@writefile{toc}{\contentsline {subsubsection}{ORGON.}{22}{section*.63}}
\newlabel{orgon.-6}{{}{22}{ORGON}{section*.63}{}}
\@writefile{toc}{\contentsline {subsubsection}{DORINE.}{22}{section*.64}}
\newlabel{dorine.-16}{{}{22}{DORINE}{section*.64}{}}
\@writefile{toc}{\contentsline {subsubsection}{ORGON.}{22}{section*.65}}
\newlabel{orgon.-7}{{}{22}{ORGON}{section*.65}{}}
\@writefile{toc}{\contentsline {subsubsection}{DORINE.}{22}{section*.66}}
\newlabel{dorine.-17}{{}{22}{DORINE}{section*.66}{}}
\@writefile{toc}{\contentsline {subsubsection}{ORGON.}{22}{section*.67}}
\newlabel{orgon.-8}{{}{22}{ORGON}{section*.67}{}}
\@writefile{toc}{\contentsline {subsubsection}{DORINE.}{23}{section*.68}}
\newlabel{dorine.-18}{{}{23}{DORINE}{section*.68}{}}
\@writefile{toc}{\contentsline {subsubsection}{ORGON.}{23}{section*.69}}
\newlabel{orgon.-9}{{}{23}{ORGON}{section*.69}{}}
\@writefile{toc}{\contentsline {subsubsection}{DORINE.}{23}{section*.70}}
\newlabel{dorine.-19}{{}{23}{DORINE}{section*.70}{}}
\@writefile{toc}{\contentsline {section}{ACTE I.}{24}{section*.71}}
\newlabel{acte-i.-4}{{}{24}{ACTE I}{section*.71}{}}
\@writefile{toc}{\contentsline {subsection}{SCÈNE V}{24}{section*.72}}
\newlabel{scuxe8ne-v}{{}{24}{SCÈNE V}{section*.72}{}}
\@writefile{toc}{\contentsline {subsubsection}{CLÉANTE.}{24}{section*.73}}
\newlabel{cluxe9ante.-6}{{}{24}{CLÉANTE}{section*.73}{}}
\@writefile{toc}{\contentsline {subsubsection}{ORGON.}{24}{section*.74}}
\newlabel{orgon.-10}{{}{24}{ORGON}{section*.74}{}}
\@writefile{toc}{\contentsline {subsubsection}{CLÉANTE.}{24}{section*.75}}
\newlabel{cluxe9ante.-7}{{}{24}{CLÉANTE}{section*.75}{}}
\@writefile{toc}{\contentsline {subsubsection}{ORGON.}{25}{section*.76}}
\newlabel{orgon.-11}{{}{25}{ORGON}{section*.76}{}}
\@writefile{toc}{\contentsline {subsubsection}{CLÉANTE.}{25}{section*.77}}
\newlabel{cluxe9ante.-8}{{}{25}{CLÉANTE}{section*.77}{}}
\@writefile{toc}{\contentsline {subsubsection}{ORGON.}{25}{section*.78}}
\newlabel{orgon.-12}{{}{25}{ORGON}{section*.78}{}}
\@writefile{toc}{\contentsline {subsubsection}{CLÉANTE.}{27}{section*.79}}
\newlabel{cluxe9ante.-9}{{}{27}{CLÉANTE}{section*.79}{}}
\@writefile{toc}{\contentsline {subsubsection}{ORGON.}{27}{section*.80}}
\newlabel{orgon.-13}{{}{27}{ORGON}{section*.80}{}}
\@writefile{toc}{\contentsline {subsubsection}{CLÉANTE.}{27}{section*.81}}
\newlabel{cluxe9ante.-10}{{}{27}{CLÉANTE}{section*.81}{}}
\@writefile{toc}{\contentsline {subsubsection}{ORGON.}{28}{section*.82}}
\newlabel{orgon.-14}{{}{28}{ORGON}{section*.82}{}}
\@writefile{toc}{\contentsline {subsubsection}{CLÉANTE.}{29}{section*.83}}
\newlabel{cluxe9ante.-11}{{}{29}{CLÉANTE}{section*.83}{}}
\@writefile{toc}{\contentsline {subsubsection}{ORGON.}{31}{section*.84}}
\newlabel{orgon.-15}{{}{31}{ORGON}{section*.84}{}}
\@writefile{toc}{\contentsline {subsubsection}{CLÉANTE.}{31}{section*.85}}
\newlabel{cluxe9ante.-12}{{}{31}{CLÉANTE}{section*.85}{}}
\@writefile{toc}{\contentsline {subsubsection}{ORGON.}{31}{section*.86}}
\newlabel{orgon.-16}{{}{31}{ORGON}{section*.86}{}}
\@writefile{toc}{\contentsline {subsubsection}{CLÉANTE.}{32}{section*.87}}
\newlabel{cluxe9ante.-13}{{}{32}{CLÉANTE}{section*.87}{}}
\@writefile{toc}{\contentsline {subsubsection}{ORGON.}{32}{section*.88}}
\newlabel{orgon.-17}{{}{32}{ORGON}{section*.88}{}}
\@writefile{toc}{\contentsline {subsubsection}{CLÉANTE.}{32}{section*.89}}
\newlabel{cluxe9ante.-14}{{}{32}{CLÉANTE}{section*.89}{}}
\@writefile{toc}{\contentsline {subsubsection}{ORGON.}{32}{section*.90}}
\newlabel{orgon.-18}{{}{32}{ORGON}{section*.90}{}}
\@writefile{toc}{\contentsline {subsubsection}{CLÉANTE.}{32}{section*.91}}
\newlabel{cluxe9ante.-15}{{}{32}{CLÉANTE}{section*.91}{}}
\@writefile{toc}{\contentsline {subsubsection}{ORGON.}{32}{section*.92}}
\newlabel{orgon.-19}{{}{32}{ORGON}{section*.92}{}}
\@writefile{toc}{\contentsline {subsubsection}{CLÉANTE.}{33}{section*.93}}
\newlabel{cluxe9ante.-16}{{}{33}{CLÉANTE}{section*.93}{}}
\@writefile{toc}{\contentsline {subsubsection}{ORGON.}{33}{section*.94}}
\newlabel{orgon.-20}{{}{33}{ORGON}{section*.94}{}}
\@writefile{toc}{\contentsline {subsubsection}{CLÉANTE.}{33}{section*.95}}
\newlabel{cluxe9ante.-17}{{}{33}{CLÉANTE}{section*.95}{}}
\@writefile{toc}{\contentsline {subsubsection}{ORGON.}{33}{section*.96}}
\newlabel{orgon.-21}{{}{33}{ORGON}{section*.96}{}}
\@writefile{toc}{\contentsline {subsubsection}{CLÉANTE.}{33}{section*.97}}
\newlabel{cluxe9ante.-18}{{}{33}{CLÉANTE}{section*.97}{}}
\@writefile{toc}{\contentsline {subsubsection}{ORGON.}{33}{section*.98}}
\newlabel{orgon.-22}{{}{33}{ORGON}{section*.98}{}}
\@writefile{toc}{\contentsline {subsubsection}{CLÉANTE.}{34}{section*.99}}
\newlabel{cluxe9ante.-19}{{}{34}{CLÉANTE}{section*.99}{}}
\@writefile{toc}{\contentsline {subsubsection}{ORGON.}{34}{section*.100}}
\newlabel{orgon.-23}{{}{34}{ORGON}{section*.100}{}}
\@writefile{toc}{\contentsline {subsubsection}{CLÉANTE.}{34}{section*.101}}
\newlabel{cluxe9ante.-20}{{}{34}{CLÉANTE}{section*.101}{}}
\@writefile{toc}{\contentsline {subsubsection}{ORGON.}{34}{section*.102}}
\newlabel{orgon.-24}{{}{34}{ORGON}{section*.102}{}}
\@writefile{toc}{\contentsline {subsubsection}{CLÉANTE.}{34}{section*.103}}
\newlabel{cluxe9ante.-21}{{}{34}{CLÉANTE}{section*.103}{}}
\@writefile{toc}{\contentsline {subsubsection}{ORGON.}{34}{section*.104}}
\newlabel{orgon.-25}{{}{34}{ORGON}{section*.104}{}}
\@writefile{toc}{\contentsline {subsubsection}{CLÉANTE.}{35}{section*.105}}
\newlabel{cluxe9ante.-22}{{}{35}{CLÉANTE}{section*.105}{}}
\@writefile{toc}{\contentsline {subsubsection}{ORGON.}{35}{section*.106}}
\newlabel{orgon.-26}{{}{35}{ORGON}{section*.106}{}}
\@writefile{toc}{\contentsline {subsubsection}{CLÉANTE.}{35}{section*.107}}
\newlabel{cluxe9ante.-23}{{}{35}{CLÉANTE}{section*.107}{}}
